{
    "name": "RepeatPrescription",
    "alias": "repeatprescription",
    "description": "",
    "keywords": [],
    "active": 1,
    "order": 0,
    "providers": [
        "App\\Modules\\RepeatPrescription\\Providers\\RepeatPrescriptionServiceProvider"
    ],
    "aliases": {},
    "files": [
        "start.php"
    ],
    "requires": []
}
